{
  "productslist": [
    {
      "count": 621,
      "next": "http://elice-kdt-ai-track-vm-ai-23.koreacentral.cloudapp.azure.com:8000/api/products/productslist/?page=2",
      "previous": null,
      "results": [
        {
          "p_no": "8037200124",
          "p_name": "Envirosax Kids Series Jessie & Lulu",
          "p_price": "",
          "p_brand": "Envirosax",
          "p_image": "",
          "p_description": "['Educating the next generation in the responsible re-use of bags, Envirosax Kids will help tomorrows future move in the right direction. Bag dimensions (unrolled) 17.70 x 15.75 Weight capacity 40 lbs Bag dimensions (rolled-up) 4 x 1.5 Bag weight 1.3 oz']",
          "p_rank": "25,698,912inClothing,ShoesJewelry(",
          "p_date": "2009-01-17",
          "p_readcount": 0,
          "p_nlp": "",
          "p_keyword": "",
          "pcategory_code": 1
        },
        {
          "p_no": "8037200221",
          "p_name": "Envirosax Greengrocer Series Bag 7 Guava",
          "p_price": "",
          "p_brand": "Envirosax",
          "p_image": "",
          "p_description": "['Envirosax Greengrocer - a range of plain coloured ultra-strong polyester rip-stop bags, which also have a waterproof backing. In an array of delectable colours named after the foods we love, Envirosax Greengrocer is a solution for those who like the simple things in life. Bag dimensions (unrolled) 18.70 x 16.5 Weight capacity 44 lbs Bag dimensions (rolled-up) 4 x 1.5 Bag weight 1.4 oz']",
          "p_rank": "25,850,143inClothing,ShoesJewelry(",
          "p_date": "2009-10-21",
          "p_readcount": 0,
          "p_nlp": "",
          "p_keyword": "",
          "pcategory_code": 1
        },
        {
          "p_no": "B00005OTJ8",
          "p_name": "SpongeBob Squarepants Comforter - Twin",
          "p_price": "",
          "p_brand": "SpongeBob SquarePants",
          "p_image": "",
          "p_description": "",
          "p_rank": "23,888,557inClothing,ShoesJewelry(",
          "p_date": "2003-03-10",
          "p_readcount": 0,
          "p_nlp": "",
          "p_keyword": "",
          "pcategory_code": 1
        },
        {
          "p_no": "B00006MVYA",
          "p_name": "Cedar Tie Hanger",
          "p_price": "",
          "p_brand": "",
          "p_image": "",
          "p_description": "",
          "p_rank": "20,806,337inClothing,ShoesJewelry(",
          "p_date": "2005-09-29",
          "p_readcount": 0,
          "p_nlp": "",
          "p_keyword": "",
          "pcategory_code": 1
        },
        {
          "p_no": "B000072WTB",
          "p_name": "Samsonite FLite & Oyster Hardside Oyster 26in. Cartwheel",
          "p_price": "",
          "p_brand": "",
          "p_image": "",
          "p_description": "",
          "p_rank": "",
          "p_date": "2008-02-02",
          "p_readcount": 0,
          "p_nlp": "",
          "p_keyword": "",
          "pcategory_code": 1
        },
        {
          "p_no": "B000072WZM",
          "p_name": "Trager Metropolitan",
          "p_price": "",
          "p_brand": "Trager",
          "p_image": "['https://images-na.ssl-images-amazon.com/images/I/41HDNHREYDL._SR38,50_.jpg', 'https://images-na.ss",
          "p_description": "",
          "p_rank": "",
          "p_date": "2004-04-08",
          "p_readcount": 0,
          "p_nlp": "",
          "p_keyword": "",
          "pcategory_code": 1
        },
        {
          "p_no": "B000072X6P",
          "p_name": "Perlina Morgan Collection Wallet on a String (Black )",
          "p_price": "",
          "p_brand": "PERLINA",
          "p_image": "",
          "p_description": "",
          "p_rank": "26,245,347inClothing,ShoesJewelry(",
          "p_date": "2009-01-14",
          "p_readcount": 0,
          "p_nlp": "",
          "p_keyword": "",
          "pcategory_code": 1
        },
        {
          "p_no": "B000072XQQ",
          "p_name": "Southern Converters Omnibag Mesh Bookbag",
          "p_price": "",
          "p_brand": "Southern Converters",
          "p_image": "['https://images-na.ssl-images-amazon.com/images/I/51B7RCJ5Q3L._SR38,50_.jpg']",
          "p_description": "",
          "p_rank": "",
          "p_date": "2002-11-11",
          "p_readcount": 0,
          "p_nlp": "",
          "p_keyword": "",
          "pcategory_code": 1
        },
        {
          "p_no": "B000072XRF",
          "p_name": "La Regale Peau de Soie Chic Full Flap Handbag (Ivory)",
          "p_price": "",
          "p_brand": "La Regale",
          "p_image": "",
          "p_description": "",
          "p_rank": "26,228,199inClothing,ShoesJewelry(",
          "p_date": "2007-12-29",
          "p_readcount": 0,
          "p_nlp": "",
          "p_keyword": "",
          "pcategory_code": 1
        },
        {
          "p_no": "B000072YTO",
          "p_name": "J. P. Ourse & Cie. Yellowstone Collection Raindrop Wallet",
          "p_price": "",
          "p_brand": "J. P. Ourse & Cie.",
          "p_image": "['https://images-na.ssl-images-amazon.com/images/I/41qluw3FLML._SR38,50_.jpg', 'https://images-na.ss",
          "p_description": "",
          "p_rank": "",
          "p_date": "2003-03-04",
          "p_readcount": 0,
          "p_nlp": "",
          "p_keyword": "",
          "pcategory_code": 1
        },
        {
          "p_no": "B000072ZF7",
          "p_name": "Samsonite Business Cases Leather Bi-fold Writing Pad (Black )",
          "p_price": "",
          "p_brand": "",
          "p_image": "",
          "p_description": "",
          "p_rank": "24,869,172inClothing,ShoesJewelry(",
          "p_date": "2006-02-24",
          "p_readcount": 0,
          "p_nlp": "",
          "p_keyword": "",
          "pcategory_code": 1
        },
        {
          "p_no": "B000072ZPG",
          "p_name": "e-Pak Notebook Computer Bag",
          "p_price": "",
          "p_brand": "e-Pak",
          "p_image": "['https://images-na.ssl-images-amazon.com/images/I/413V414K9NL._SR38,50_.jpg']",
          "p_description": "",
          "p_rank": "",
          "p_date": "2003-03-21",
          "p_readcount": 0,
          "p_nlp": "",
          "p_keyword": "",
          "pcategory_code": 1
        },
        {
          "p_no": "B000072ZTR",
          "p_name": "Mountainsmith Mountainlight Ghost - Long Torso",
          "p_price": "",
          "p_brand": "Mountainsmith",
          "p_image": "['https://images-na.ssl-images-amazon.com/images/I/314NQJWMVWL._SR38,50_.jpg', 'https://images-na.ss",
          "p_description": "",
          "p_rank": "",
          "p_date": "2003-02-28",
          "p_readcount": 0,
          "p_nlp": "",
          "p_keyword": "",
          "pcategory_code": 1
        },
        {
          "p_no": "B0000730S0",
          "p_name": "Perlina Morgan Collection Leather Hobo",
          "p_price": "",
          "p_brand": "PERLINA",
          "p_image": "['https://images-na.ssl-images-amazon.com/images/I/41SZWVQXCZL._SR38,50_.jpg']",
          "p_description": "",
          "p_rank": "",
          "p_date": "2006-11-27",
          "p_readcount": 0,
          "p_nlp": "",
          "p_keyword": "",
          "pcategory_code": 1
        },
        {
          "p_no": "B0000730SA",
          "p_name": "J. P. Ourse & Cie. Yellowstone Flat Compact",
          "p_price": "",
          "p_brand": "J. P. Ourse & Cie.",
          "p_image": "['https://images-na.ssl-images-amazon.com/images/I/41hNmG5rZBL._SR38,50_.jpg', 'https://images-na.ss",
          "p_description": "",
          "p_rank": "",
          "p_date": "2006-01-31",
          "p_readcount": 0,
          "p_nlp": "",
          "p_keyword": "",
          "pcategory_code": 1
        },
        {
          "p_no": "B000073147",
          "p_name": "Clive \"\"Traffic\"\" Sling",
          "p_price": "",
          "p_brand": "Clive",
          "p_image": "",
          "p_description": "",
          "p_rank": "",
          "p_date": "2004-12-06",
          "p_readcount": 0,
          "p_nlp": "",
          "p_keyword": "",
          "pcategory_code": 1
        },
        {
          "p_no": "B0000731RO",
          "p_name": "High Sierra Fat Boy",
          "p_price": "",
          "p_brand": "",
          "p_image": "['https://images-na.ssl-images-amazon.com/images/I/41G48DQDYDL._SR38,50_.jpg']",
          "p_description": "",
          "p_rank": "",
          "p_date": "2002-12-26",
          "p_readcount": 0,
          "p_nlp": "",
          "p_keyword": "",
          "pcategory_code": 1
        },
        {
          "p_no": "B000073209",
          "p_name": "Lewis N. Clark Reakt Neck Pillow (Black )",
          "p_price": "",
          "p_brand": "Lewis N. Clark",
          "p_image": "['https://images-na.ssl-images-amazon.com/images/I/41SyGjt4KdL._SR38,50_.jpg', 'https://images-na.ss",
          "p_description": "",
          "p_rank": "23,461,935inClothing,Shoesamp;Jewelry(",
          "p_date": "2006-07-07",
          "p_readcount": 0,
          "p_nlp": "",
          "p_keyword": "",
          "pcategory_code": 1
        },
        {
          "p_no": "B000073249",
          "p_name": "Travelon Comfort Grip 3-in-1 Travel Handle",
          "p_price": "",
          "p_brand": "",
          "p_image": "['https://images-na.ssl-images-amazon.com/images/I/51QFRF05DNL._SR38,50_.jpg', 'https://images-na.ss",
          "p_description": "",
          "p_rank": "",
          "p_date": "2002-11-14",
          "p_readcount": 0,
          "p_nlp": "",
          "p_keyword": "",
          "pcategory_code": 1
        },
        {
          "p_no": "B00007325C",
          "p_name": "Travelon ID & Boarding Pass Holder w/Snap Closure",
          "p_price": "",
          "p_brand": "",
          "p_image": "['https://images-na.ssl-images-amazon.com/images/I/41ZBFA9ZFSL._SR38,50_.jpg', 'https://images-na.ss",
          "p_description": "",
          "p_rank": "",
          "p_date": "2002-11-26",
          "p_readcount": 0,
          "p_nlp": "",
          "p_keyword": "",
          "pcategory_code": 1
        }
      ]
    }
  ]
}
